http://data.aodn.org.au/IMOS/SOOP/SOOP-SST/VNAH_Portland/2012/IMOS_SOOP-SST_MT_20120501T000000Z_VNAH_FV01_C-20120528T071918Z.nc
http://data.aodn.org.au/IMOS/SOOP/SOOP-SST/9HA2479_Pacific-Sun/2011/IMOS_SOOP-SST_MT_20110928T010000Z_9HA2479_FV01_C-20120528T072237Z.nc
http://data.aodn.org.au/IMOS/SOOP/SOOP-SST/9HA2479_Pacific-Sun/2011/IMOS_SOOP-SST_MT_20111002T000000Z_9HA2479_FV01_C-20120528T072238Z.nc
http://data.aodn.org.au/IMOS/SOOP/SOOP-SST/9HA2479_Pacific-Sun/2011/IMOS_SOOP-SST_MT_20111006T000000Z_9HA2479_FV01_C-20120528T072239Z.nc
http://data.aodn.org.au/IMOS/SOOP/SOOP-SST/9HA2479_Pacific-Sun/2011/IMOS_SOOP-SST_MT_20111014T010000Z_9HA2479_FV01_C-20120528T072243Z.nc
http://data.aodn.org.au/IMOS/SOOP/SOOP-SST/9HA2479_Pacific-Sun/2011/IMOS_SOOP-SST_MT_20111017T000000Z_9HA2479_FV01_C-20120528T072245Z.nc
http://data.aodn.org.au/IMOS/SOOP/SOOP-SST/9HA2479_Pacific-Sun/2011/IMOS_SOOP-SST_MT_20111018T000000Z_9HA2479_FV01_C-20120528T072245Z.nc
http://data.aodn.org.au/IMOS/SOOP/SOOP-SST/9HA2479_Pacific-Sun/2011/IMOS_SOOP-SST_MT_20111026T000000Z_9HA2479_FV01_C-20120528T072247Z.nc
http://data.aodn.org.au/IMOS/SOOP/SOOP-SST/VNVR_Iron-Yandi/2010/IMOS_SOOP-SST_MT_20100425T000000Z_VNVR_FV01_C-20120528T041018Z.nc
http://data.aodn.org.au/IMOS/SOOP/SOOP-SST/VNVR_Iron-Yandi/2010/IMOS_SOOP-SST_MT_20100705T000000Z_VNVR_FV01_C-20120528T041035Z.nc
http://data.aodn.org.au/IMOS/SOOP/SOOP-SST/VNVR_Iron-Yandi/2010/IMOS_SOOP-SST_MT_20100828T000000Z_VNVR_FV01_C-20120528T041055Z.nc
http://data.aodn.org.au/IMOS/SOOP/SOOP-SST/VNVR_Iron-Yandi/2010/IMOS_SOOP-SST_MT_20101007T000000Z_VNVR_FV01_C-20120528T041105Z.nc
http://data.aodn.org.au/IMOS/SOOP/SOOP-SST/VNVR_Iron-Yandi/2010/IMOS_SOOP-SST_MT_20101126T000000Z_VNVR_FV01_C-20120528T041120Z.nc
http://data.aodn.org.au/IMOS/SOOP/SOOP-SST/VNVR_Iron-Yandi/2011/IMOS_SOOP-SST_MT_20110111T000000Z_VNVR_FV01_C-20120528T041126Z.nc
http://data.aodn.org.au/IMOS/SOOP/SOOP-SST/VNVR_Iron-Yandi/2011/IMOS_SOOP-SST_MT_20110219T000000Z_VNVR_FV01_C-20120528T041132Z.nc
http://data.aodn.org.au/IMOS/SOOP/SOOP-SST/VNVR_Iron-Yandi/2011/IMOS_SOOP-SST_MT_20110325T000000Z_VNVR_FV01_C-20120528T041136Z.nc
http://data.aodn.org.au/IMOS/SOOP/SOOP-SST/VNVR_Iron-Yandi/2011/IMOS_SOOP-SST_MT_20110503T000000Z_VNVR_FV01_C-20120528T041143Z.nc
http://data.aodn.org.au/IMOS/SOOP/SOOP-SST/VNVR_Iron-Yandi/2011/IMOS_SOOP-SST_MT_20110830T000000Z_VNVR_FV01_C-20120528T041147Z.nc
http://data.aodn.org.au/IMOS/SOOP/SOOP-SST/VNVR_Iron-Yandi/2011/IMOS_SOOP-SST_MT_20111003T020000Z_VNVR_FV01_C-20120528T041154Z.nc
http://data.aodn.org.au/IMOS/SOOP/SOOP-SST/VNVR_Iron-Yandi/2011/IMOS_SOOP-SST_MT_20111119T000000Z_VNVR_FV01_C-20120528T041203Z.nc
http://data.aodn.org.au/IMOS/SOOP/SOOP-SST/VNVR_Iron-Yandi/2011/IMOS_SOOP-SST_MT_20111120T000000Z_VNVR_FV01_C-20120528T041203Z.nc
